Suite/Test/Step Name,Browser,Description,Tag,Start time,End time,Duration,Status
RM_Analize,,,,2019-12-10 16:10:13,2019-12-10 16:13:00,2m - 46.094s,INCOMPLETE
,,,,,,,
Test Cases/RM Full Regression Stage/Pacient - T162297 (analize),,Verify that info is properly displayed within the Analysis,,2019-12-10 16:10:14,2019-12-10 16:11:24,1m - 10.147s,PASSED
"startApplication(""C:\Users\Catalin\Desktop\app-regina-maria-v480-debug.apk"", false)",,,,2019-12-10 16:10:14,2019-12-10 16:10:44,30.036s,PASSED
"tap(findTestObject(""Application/RM/T162297/android.widget.ImageButton0""), 0)",,,,2019-12-10 16:10:44,2019-12-10 16:10:47,3.305s,PASSED
"setText(findTestObject(""Application/RM/T162297/android.widget.EditText0""), ""catalin.it86@gmail.com"", 0)",,,,2019-12-10 16:10:47,2019-12-10 16:10:48,1.101s,PASSED
"setText(findTestObject(""Application/RM/T162297/android.widget.EditText0 (1)""), ""123456.Abc"", 0)",,,,2019-12-10 16:10:48,2019-12-10 16:10:50,1.482s,PASSED
"tap(findTestObject(""Application/RM/T162297/android.widget.Button0 - Intra in cont""), 0)",,,,2019-12-10 16:10:50,2019-12-10 16:10:53,3.442s,PASSED
"tap(findTestObject(""Application/RM/T162297/android.widget.ImageButton0 (1)""), 0)",,,,2019-12-10 16:10:53,2019-12-10 16:11:00,7.120s,PASSED
"tap(findTestObject(""Application/RM/T162297/android.widget.TextView0 - Dosar""), 0)",,,,2019-12-10 16:11:00,2019-12-10 16:11:03,3.027s,PASSED
"tap(findTestObject(""Application/RM/T162297/android.widget.TextView0 - Analize""), 0)",,,,2019-12-10 16:11:03,2019-12-10 16:11:06,2.784s,PASSED
"tap(findTestObject(""Application/RM/T162297/android.widget.TextView0 - cod proba""), 0)",,,,2019-12-10 16:11:06,2019-12-10 16:11:16,10.224s,PASSED
"tap(findTestObject(""Application/RM/T162297/android.widget.TextView0 - Vezi evolutie""), 0)",,,,2019-12-10 16:11:16,2019-12-10 16:11:23,7.043s,PASSED
closeApplication(),,,,2019-12-10 16:11:23,2019-12-10 16:11:24,0.336s,PASSED
,,,,,,,
Test Cases/RM Full Regression Stage/Pacient - T162364 (analize),,Check that a pop-up must be present if the user selects the same start and end date in Consultatii/Analize,,2019-12-10 16:11:24,2019-12-10 16:13:00,1m - 35.741s,PASSED
"startApplication(""C:\Users\Catalin\Downloads\app-regina-maria-v480-debug.apk"", true)",,,,2019-12-10 16:11:24,2019-12-10 16:11:54,30.439s,PASSED
"tap(findTestObject(""Application/RM/T162364/android.widget.ImageButton0""), 0)",,,,2019-12-10 16:11:54,2019-12-10 16:11:57,2.563s,PASSED
"setText(findTestObject(""Application/RM/T162364/android.widget.EditText0""), ""catalin.it86@gmail.com"", 0)",,,,2019-12-10 16:11:57,2019-12-10 16:11:58,1.111s,PASSED
"setText(findTestObject(""Application/RM/T162364/android.widget.EditText0 (1)""), ""123456.Abc"", 0)",,,,2019-12-10 16:11:58,2019-12-10 16:12:00,2.131s,PASSED
"tap(findTestObject(""Application/RM/T162364/android.widget.Button0 - Intra in cont""), 0)",,,,2019-12-10 16:12:00,2019-12-10 16:12:03,2.631s,PASSED
"tap(findTestObject(""Application/RM/T162322/android.widget.ImageButton0 (1)""), 0)",,,,2019-12-10 16:12:03,2019-12-10 16:12:06,2.731s,PASSED
"tap(findTestObject(""Application/RM/T162364/android.widget.TextView0 - Dosar""), 0)",,,,2019-12-10 16:12:06,2019-12-10 16:12:38,32.140s,PASSED
"tap(findTestObject(""Application/RM/T162364/android.widget.TextView0 - Analize""), 0)",,,,2019-12-10 16:12:38,2019-12-10 16:12:48,10.744s,PASSED
"tap(findTestObject(""Application/RM/T162364/android.widget.TextView0 - Selecteaza perioada""), 0)",,,,2019-12-10 16:12:48,2019-12-10 16:12:51,2.950s,PASSED
"tap(findTestObject(""Application/RM/T162364/android.widget.Button0 - OK""), 0)",,,,2019-12-10 16:12:51,2019-12-10 16:12:53,2.068s,PASSED
"tap(findTestObject(""Application/RM/T162364/android.widget.Button0 - Continua""), 0)",,,,2019-12-10 16:12:53,2019-12-10 16:12:55,2.002s,PASSED
"tap(findTestObject(""Application/RM/T162364/android.widget.ImageButton0 (1)""), 0)",,,,2019-12-10 16:12:55,2019-12-10 16:12:58,2.300s,PASSED
closeApplication(),,,,2019-12-10 16:12:58,2019-12-10 16:13:00,1.785s,PASSED
