Suite/Test/Step Name,Browser,Description,Tag,Start time,End time,Duration,Status
RM_Dasboard,,,,2019-11-26 15:38:10,2019-11-26 15:41:52,3m - 41.678s,INCOMPLETE
,,,,,,,
Test Cases/RM Full Regression Stage/Pacient - T162255 (dashboard),,"Check ""Bottom menu"" for functionality",,2019-11-26 15:38:10,2019-11-26 15:39:20,1m - 9.240s,FAILED
"startApplication(""C:\Users\Catalin\Downloads\app-regina-maria-v480-debug.apk"", false)",,,,2019-11-26 15:38:11,2019-11-26 15:38:39,28.702s,PASSED
"tap(findTestObject(""Application/RM/T162255/android.widget.ImageButton0""), 0)",,,,2019-11-26 15:38:39,2019-11-26 15:38:42,2.634s,PASSED
"setText(findTestObject(""Application/RM/T162255/android.widget.EditText0""), ""catalin.it86@gmail.com"", 0)",,,,2019-11-26 15:38:42,2019-11-26 15:38:43,1.133s,PASSED
"setText(findTestObject(""Application/RM/T162255/android.widget.EditText0 (1)""), ""123456.Abc"", 0)",,,,2019-11-26 15:38:43,2019-11-26 15:38:45,1.548s,PASSED
"tap(findTestObject(""Application/RM/T162255/android.widget.Button0 - Intra in cont""), 0)",,,,2019-11-26 15:38:45,2019-11-26 15:38:48,2.930s,PASSED
"tap(findTestObject(""Application/RM/T162255/android.widget.ImageButton0 (1)""), 0)",,,,2019-11-26 15:38:48,2019-11-26 15:39:20,32.080s,FAILED
,,,,,,,
Test Cases/RM Full Regression Stage/Pacient - T162279 (dashboard),,"Check ""Top menu"" for functionality",,2019-11-26 15:39:20,2019-11-26 15:40:15,54.793s,FAILED
"startApplication(""C:\Users\Catalin\Downloads\app-regina-maria-v480-debug.apk"", false)",,,,2019-11-26 15:39:20,2019-11-26 15:39:35,15.044s,PASSED
"tap(findTestObject(""Application/RM/T162279/android.widget.TextView0 - Educatie medicala""), 0)",,,,2019-11-26 15:39:35,2019-11-26 15:39:43,7.924s,PASSED
pressBack(),,,,2019-11-26 15:39:43,2019-11-26 15:39:43,0.198s,PASSED
"tap(findTestObject(""Application/RM/T162279/android.widget.TextView0 - Programari""), 0)",,,,2019-11-26 15:39:43,2019-11-26 15:40:15,31.483s,FAILED
,,,,,,,
Test Cases/RM Full Regression Stage/Pacient - T162286 (dashboard),,Check that the application has no placeholder text,,2019-11-26 15:40:15,2019-11-26 15:40:50,35.206s,PASSED
"startApplication(""C:\Users\Catalin\Downloads\app-regina-maria-v480-debug.apk"", false)",,,,2019-11-26 15:40:15,2019-11-26 15:40:30,15.167s,PASSED
"tap(findTestObject(""Application/RM/T162286/android.widget.TextView0 - Home""), 0)",,,,2019-11-26 15:40:30,2019-11-26 15:40:39,9.101s,PASSED
"tap(findTestObject(""Application/RM/T162286/android.widget.TextView0 - Programari""), 0)",,,,2019-11-26 15:40:39,2019-11-26 15:40:40,1.191s,PASSED
"tap(findTestObject(""Application/RM/T162286/android.widget.TextView0 - Home (1)""), 0)",,,,2019-11-26 15:40:40,2019-11-26 15:40:43,2.720s,PASSED
"tap(findTestObject(""Application/RM/T162286/android.widget.TextView0 - Intreaba un medic""), 0)",,,,2019-11-26 15:40:43,2019-11-26 15:40:45,1.717s,PASSED
"tap(findTestObject(""Application/RM/T162286/android.widget.TextView0 - Home (1)""), 0)",,,,2019-11-26 15:40:45,2019-11-26 15:40:46,1.430s,PASSED
"tap(findTestObject(""Application/RM/T162286/android.widget.TextView0 - Investigatii si preturi""), 0)",,,,2019-11-26 15:40:46,2019-11-26 15:40:48,2.066s,PASSED
"tap(findTestObject(""Application/RM/T162286/android.widget.TextView0 - Home (1)""), 0)",,,,2019-11-26 15:40:48,2019-11-26 15:40:49,1.310s,PASSED
closeApplication(),,,,2019-11-26 15:40:49,2019-11-26 15:40:50,0.374s,PASSED
,,,,,,,
Test Cases/RM Full Regression Stage/Pacient - T162288 (dashboard),,Check the dashboard design,,2019-11-26 15:40:50,2019-11-26 15:41:52,1m - 2.265s,FAILED
"startApplication(""C:\Users\Catalin\Downloads\app-regina-maria-v480-debug.apk"", true)",,,,2019-11-26 15:40:50,2019-11-26 15:41:20,30.338s,PASSED
"tap(findTestObject(""Application/RM/T162288/android.widget.ImageButton0 (1)""), 0)",,,,2019-11-26 15:41:20,2019-11-26 15:41:52,31.799s,FAILED
