Suite/Test/Step Name,Browser,Description,Tag,Start time,End time,Duration,Status
RM_Dosar medical,,,,2019-11-28 14:12:54,2019-11-28 14:24:41,11m - 47.326s,INCOMPLETE
,,,,,,,
Test Cases/RM Full Regression Stage/Pacient - T162261 (dosar medical),,"Check ""Dosar medical"" for functionality",,2019-11-28 14:12:54,2019-11-28 14:19:03,6m - 8.706s,PASSED
"startApplication(""C:\Users\Catalin\Desktop\app-regina-maria-v480-debug.apk"", false)",,,,2019-11-28 14:12:55,2019-11-28 14:13:40,45.300s,PASSED
"tap(findTestObject(""Application/RM/T162261/android.widget.ImageButton0""), 0)",,,,2019-11-28 14:13:40,2019-11-28 14:13:43,2.950s,PASSED
"setText(findTestObject(""Application/RM/T162261/android.widget.EditText0""), ""catalin.it86@gmail.com"", 0)",,,,2019-11-28 14:13:43,2019-11-28 14:13:44,1.385s,PASSED
"setText(findTestObject(""Application/RM/T162261/android.widget.EditText0 (1)""), ""123456.Abc"", 0)",,,,2019-11-28 14:13:44,2019-11-28 14:13:46,1.616s,PASSED
"tap(findTestObject(""Application/RM/T162261/android.widget.Button0 - Intra in cont""), 0)",,,,2019-11-28 14:13:46,2019-11-28 14:13:49,3.095s,PASSED
"tap(findTestObject(""Application/RM/T162261/android.widget.TextView0 - Dosar""), 0)",,,,2019-11-28 14:13:49,2019-11-28 14:14:16,26.854s,PASSED
"tap(findTestObject(""Application/RM/T162261/android.widget.TextView0 - Consultatii""), 0)",,,,2019-11-28 14:14:16,2019-11-28 14:14:56,40.127s,PASSED
"tap(findTestObject(""Application/RM/T162261/android.widget.ImageButton0 (2)""), 0)",,,,2019-11-28 14:14:56,2019-11-28 14:15:07,11.101s,PASSED
"tap(findTestObject(""Application/RM/T162261/android.widget.TextView0 - Analize""), 0)",,,,2019-11-28 14:15:07,2019-11-28 14:15:56,48.423s,PASSED
"tap(findTestObject(""Application/RM/T162261/android.widget.ImageButton0 (2)""), 0)",,,,2019-11-28 14:15:56,2019-11-28 14:16:07,10.858s,PASSED
"tap(findTestObject(""Application/RM/T162261/android.widget.TextView0 - Investigatii si preturi""), 0)",,,,2019-11-28 14:16:07,2019-11-28 14:16:56,49.532s,PASSED
"tap(findTestObject(""Application/RM/T162261/android.widget.ImageButton0 (2)""), 0)",,,,2019-11-28 14:16:56,2019-11-28 14:17:07,11.174s,PASSED
"tap(findTestObject(""Application/RM/T162261/android.widget.TextView0 - Informatii vitale""), 0)",,,,2019-11-28 14:17:07,2019-11-28 14:17:56,48.606s,PASSED
"tap(findTestObject(""Application/RM/T162261/android.widget.ImageButton0 (2)""), 0)",,,,2019-11-28 14:17:56,2019-11-28 14:18:07,10.862s,PASSED
"tap(findTestObject(""Application/RM/T162261/android.widget.TextView0 - Medicii mei""), 0)",,,,2019-11-28 14:18:07,2019-11-28 14:18:56,49.096s,PASSED
"tap(findTestObject(""Application/RM/T162261/android.widget.ImageButton0 (2)""), 0)",,,,2019-11-28 14:18:56,2019-11-28 14:18:58,1.763s,PASSED
"tap(findTestObject(""Application/RM/T162261/android.widget.TextView0 - Facturi si plati""), 0)",,,,2019-11-28 14:18:58,2019-11-28 14:19:01,3.295s,PASSED
"tap(findTestObject(""Application/RM/T162261/android.widget.ImageButton0 (2)""), 0)",,,,2019-11-28 14:19:01,2019-11-28 14:19:02,1.353s,PASSED
closeApplication(),,,,2019-11-28 14:19:02,2019-11-28 14:19:03,0.918s,PASSED
,,,,,,,
Test Cases/RM Full Regression Stage/Pacient - T162262 (dosar medical),,"Check ""Consultatii"" for functionality",,2019-11-28 14:19:03,2019-11-28 14:20:00,56.564s,PASSED
"startApplication(""C:\Users\Catalin\Desktop\app-regina-maria-v480-debug.apk"", false)",,,,2019-11-28 14:19:03,2019-11-28 14:19:28,24.324s,PASSED
"tap(findTestObject(""Application/RM/T162262/android.widget.TextView0 - Dosar""), 0)",,,,2019-11-28 14:19:28,2019-11-28 14:19:35,7.178s,PASSED
"tap(findTestObject(""Application/RM/T162262/android.widget.TextView0 - Consultatii""), 0)",,,,2019-11-28 14:19:35,2019-11-28 14:19:56,21.059s,PASSED
"tap(findTestObject(""Application/RM/T162262/android.widget.ImageButton0""), 0)",,,,2019-11-28 14:19:56,2019-11-28 14:19:57,1.469s,PASSED
"tap(findTestObject(""Application/RM/T162262/android.widget.ImageButton0 (1)""), 0)",,,,2019-11-28 14:19:57,2019-11-28 14:19:59,1.800s,PASSED
closeApplication(),,,,2019-11-28 14:19:59,2019-11-28 14:20:00,0.501s,PASSED
,,,,,,,
Test Cases/RM Full Regression Stage/Pacient - T162274 (dosar medical),,"Check ""Investigatii si preturi"" for functionality",,2019-11-28 14:20:00,2019-11-28 14:21:31,1m - 30.893s,FAILED
"startApplication(""C:\Users\Catalin\Desktop\app-regina-maria-v480-debug.apk"", false)",,,,2019-11-28 14:20:00,2019-11-28 14:20:24,24.178s,PASSED
"tap(findTestObject(""Application/RM/T162274/android.widget.TextView0 - Dosar""), 0)",,,,2019-11-28 14:20:24,2019-11-28 14:20:42,17.786s,PASSED
"tap(findTestObject(""Application/RM/T162274/android.widget.TextView0 - Investigatii si preturi""), 0)",,,,2019-11-28 14:20:42,2019-11-28 14:20:57,14.810s,PASSED
"tap(findTestObject(""Application/RM/T162274/android.widget.RelativeLayout0""), 0)",,,,2019-11-28 14:20:57,2019-11-28 14:20:58,1.589s,PASSED
"tap(findTestObject(""Application/RM/T162274/android.widget.TextView0 - Bucuresti""), 0)",,,,2019-11-28 14:20:58,2019-11-28 14:21:31,32.151s,FAILED
,,,,,,,
Test Cases/RM Full Regression Stage/Pacient - T162275 (dosar medical),,"Check ""Informatii vitale"" for functionality",,2019-11-28 14:21:31,2019-11-28 14:23:08,1m - 37.149s,PASSED
"startApplication(""C:\Users\Catalin\Desktop\app-regina-maria-v480-debug.apk"", false)",,,,2019-11-28 14:21:31,2019-11-28 14:21:50,18.953s,PASSED
"tap(findTestObject(""Application/RM/T162275/android.widget.TextView0 - Dosar""), 0)",,,,2019-11-28 14:21:50,2019-11-28 14:21:57,7.149s,PASSED
"tap(findTestObject(""Application/RM/T162275/android.widget.TextView0 - Informatii vitale""), 0)",,,,2019-11-28 14:21:57,2019-11-28 14:22:57,59.662s,PASSED
"tap(findTestObject(""Application/RM/T162275/android.widget.ImageButton0 (2)""), 0)",,,,2019-11-28 14:22:57,2019-11-28 14:22:59,2.401s,PASSED
"setText(findTestObject(""Application/RM/T162275/android.widget.EditText0 - Greutate(kg)""), ""65"", 0)",,,,2019-11-28 14:22:59,2019-11-28 14:23:02,2.536s,PASSED
"tap(findTestObject(""Application/RM/T162275/android.widget.Button0 - Salveaza""), 0)",,,,2019-11-28 14:23:02,2019-11-28 14:23:04,2.216s,PASSED
"tap(findTestObject(""Application/RM/T162275/android.widget.Button0 - Continua""), 0)",,,,2019-11-28 14:23:04,2019-11-28 14:23:07,3.500s,PASSED
closeApplication(),,,,2019-11-28 14:23:07,2019-11-28 14:23:08,0.405s,PASSED
,,,,,,,
Test Cases/RM Full Regression Stage/Pacient - T162321 (dosar medical),,Check the email from the bottom text in Dosar medical page,,2019-11-28 14:23:08,2019-11-28 14:24:41,1m - 33.697s,FAILED
"startApplication(""C:\Users\Catalin\Desktop\app-regina-maria-v480-debug.apk"", true)",,,,2019-11-28 14:23:08,2019-11-28 14:23:48,39.889s,PASSED
"tap(findTestObject(""Application/RM/test dosar medical/android.widget.ImageButton0""), 0)",,,,2019-11-28 14:23:48,2019-11-28 14:23:51,2.774s,PASSED
"setText(findTestObject(""Application/RM/test dosar medical/android.widget.EditText0""), ""catalin.it86@gmail.com"", 0)",,,,2019-11-28 14:23:51,2019-11-28 14:23:52,1.222s,PASSED
"setText(findTestObject(""Application/RM/test dosar medical/android.widget.EditText0 (1)""), ""123456.Abc"", 0)",,,,2019-11-28 14:23:52,2019-11-28 14:23:54,1.564s,PASSED
"tap(findTestObject(""Application/RM/test dosar medical/android.widget.Button0 - Intra in cont""), 0)",,,,2019-11-28 14:23:54,2019-11-28 14:23:57,3.179s,PASSED
"tap(findTestObject(""Application/RM/test dosar medical/android.widget.ImageButton0 (1)""), 0)",,,,2019-11-28 14:23:57,2019-11-28 14:24:03,6.123s,PASSED
"tap(findTestObject(""Application/RM/test dosar medical/android.widget.ImageButton0 (2)""), 0)",,,,2019-11-28 14:24:03,2019-11-28 14:24:06,3.397s,PASSED
"tap(findTestObject(""Application/RM/test dosar medical/android.widget.TextView0 - Dosar""), 0)",,,,2019-11-28 14:24:06,2019-11-28 14:24:08,1.664s,PASSED
"scrollToText(""Informatiile disponibile in aceasta aplicatie sunt extrase din baza de date REGINAciteste mai mult"", STOP_ON_FAILURE)",,,,2019-11-28 14:24:08,2019-11-28 14:24:41,33.556s,FAILED
